{
    "id": {
        "label": "ID",
        "type": "text",
        "disabled": true,
        "editable": false
    },
    "name": {
        "label": "名称",
        "type": "text",
        "rule": "required"
    },
    "kana": {
        "label": "カナ",
        "type": "text",
        "rule": "regex:^([ァ-ヴｦ-ﾟ][ァ-ヴー・ｦ-ﾟ]*)$"
    },
    "Abbreviation": {
        "label": "略称",
        "type": "text"
    },
    "staff_name": {
        "label": "担当者名",
        "editable": false
    },
    "staff_id": {
        "label": "担当者",
        "type": "lockup",
        "searchPath": "employee/search",
        "itemText": "id",
        "itemValue": "id",
        "value": "staff",
        "placeholder": "担当者を検索",
        "Required": true,
        "display": "",
        "code": "id",
        "visible": false
    },

    "driver_name": {
        "label": "配送担当者名",
        "editable": false
    },
    "driver_id": {
        "label": "配送担当者",
        "type": "lockup",
        "searchPath": "employee/search",
        "itemText": "id",
        "itemValue": "id",
        "value": "driver",
        "placeholder": "配送担当者を検索",
        "Required": true,
        "display": "",
        "code": "code",
        "visible": false
    },
    "collect_class": {
        "label": "回収区分",
        "type": "select",
        "rule": "required",
        "items": ["01 振込", "02 現金"]
    },
    "payment_month_type": {
        "label": "回収月",
        "type": "select",
        "rule": "required",
        "items": ["当月", "翌月", "翌々月"]
    },
    "payment_day": {
        "label": "回収日",
        "type": "select",
        "items": [
            "1",
            "2",
            "3",
            "4",
            "5",
            "6",
            "7",
            "8",
            "9",
            "10",
            "11",
            "12",
            "13",
            "14",
            "15",
            "16",
            "17",
            "18",
            "19",
            "20",
            "21",
            "22",
            "23",
            "24",
            "25",
            "26",
            "27",
            "28",
            "29",
            "30",
            "末日"
        ],
        "rule": "required"
    },
    "deadline": {
        "label": "締め日",
        "type": "select",
        "rule": "required",
        "Required": true,
        "items": ["5", "10", "15", "20", "25", "末日"]
    },
    "postal_code": {
        "label": "郵便番号",
        "type": "text",
        "rule": "regex:^[0-9]{3}-[0-9]{4}$"
    },
    "phone_number": {
        "label": "電話番号",
        "type": "text",
        "rule": "required"
    },
    "fax": {
        "label": "Fax",
        "type": "text"
    },

    "first_adress": {
        "label": "住所1",
        "type": "text",
        "rule": "max:32"
    },
    "second_adress": {
        "label": "住所2",
        "type": "text"
    },

    "TaxType": {
        "label": "税区分",
        "type": "select",
        "Required": true,
        "items": ["外税", "内税"]
    },
    "display_carried_forward": {
        "label": "請求書に繰越金額を表示",
        "type": "check"
    },
    "created_at": {
        "label": "作成日",
        "type": "date",
        "disabled": true,
        "editable": false
    },
    "updated_at": {
        "label": "最終更新日",
        "type": "date",
        "disabled": true,
        "editable": false
    },
    "TotalBillingAmount": {
        "label": "累計請求金額",
        "type": "date",
        "disabled": true,
        "editable": false
    },
    "TotalPayment": {
        "label": "累計支払金額",
        "type": "text",
        "disabled": true,
        "editable": false
    }
}
