{
    "id": {
        "label": "ID",
        "type": "text",
        "disabled": true,
        "editable": false
    },
    "account_name": {
        "label": "得意先名",
        "type": "text",
        "Required": true
    },
    "collect_class": {
        "label": "回収区分",
        "type": "text",
        "Required": true,
        "editable": false
    },
    "starting_date": { "label": "起算日", "type": "date" },
    "deadline": { "label": "締め日", "type": "date" },
    "payment_date": {
        "label": "支払予定日",
        "type": "date",
        "Required": true
    },
    "deposited": {
        "label": "入金確認済み",
        "type": "check",
        "Required": true
    },
    "billing_date": {
        "label": "請求日",
        "type": "date",
        "Required": true
    },
    "subtotal": {
        "label": "小計",
        "type": "text",
        "Required": true,
        "editable": false
    },
    "tax": {
        "label": "消費税",
        "type": "text",
        "Required": true,
        "editable": false
    },
    "total": {
        "label": "合計",
        "type": "text",
        "Required": true,
        "editable": false
    },
    "deposited_amount": {
        "label": "入金済金額",
        "type": "text",
        "Required": true,
        "editable": false
    },
    "created_at": {
        "label": "作成日",
        "type": "date",
        "disabled": true,
        "editable": false
    },
    "updated_at": {
        "label": "最終更新日",
        "type": "date",
        "disabled": true,
        "editable": false
    }
}
